mp4.vcd
$date
	Mon Dec  8 00:56:14 2025
$end
$version
	Icarus Verilog
$end
$timescale
	1ps
$end
$scope module mp4_tb $end
$var wire 1 ! RGB_R $end
$var wire 1 " RGB_G $end
$var wire 1 # RGB_B $end
$var wire 1 $ LED $end
$var reg 1 % clk $end
$var reg 1 & reset $end
$scope module u0 $end
$var wire 32 ' Data [31:0] $end
$var wire 1 $ LED $end
$var wire 1 # RGB_B $end
$var wire 1 " RGB_G $end
$var wire 1 ! RGB_R $end
$var wire 1 % clk $end
$var wire 1 & reset $end
$var wire 1 ( zero $end
$var wire 1 ) signed_less_than $end
$var wire 2 * result_src [1:0] $end
$var wire 32 + res [31:0] $end
$var wire 1 , reg_write $end
$var wire 1 - red $end
$var wire 32 . read_data2 [31:0] $end
$var wire 32 / read_data1 [31:0] $end
$var wire 1 0 pc_write $end
$var wire 1 1 pc_update $end
$var wire 1 2 mem_write $end
$var wire 1 3 less_than $end
$var wire 1 4 led $end
$var wire 1 5 ir_write $end
$var wire 3 6 imm_src [2:0] $end
$var wire 32 7 imm_ext [31:0] $end
$var wire 32 8 imem_data_out [31:0] $end
$var wire 32 9 imem_address [31:0] $end
$var wire 1 : green $end
$var wire 32 ; dmem_data_out [31:0] $end
$var wire 1 < blue $end
$var wire 2 = alu_src_b [1:0] $end
$var wire 2 > alu_src_a [1:0] $end
$var wire 3 ? alu_control [2:0] $end
$var wire 32 @ alu_c [31:0] $end
$var wire 32 A alu_b [31:0] $end
$var wire 32 B alu_a [31:0] $end
$var wire 1 C adr_src $end
$var wire 32 D adr [31:0] $end
$var parameter 4 E BLUE $end
$var parameter 4 F CYAN $end
$var parameter 4 G GREEN $end
$var parameter 4 H INIT $end
$var parameter 4 I MAGENTA $end
$var parameter 4 J RED $end
$var parameter 22 K STATE_DWELL_CYCLES $end
$var parameter 4 L YELLOW $end
$var reg 32 M A [31:0] $end
$var reg 32 N alu_out [31:0] $end
$var reg 22 O count [21:0] $end
$var reg 32 P dmem_address [31:0] $end
$var reg 32 Q dmem_data_in [31:0] $end
$var reg 1 R dmem_wren $end
$var reg 3 S funct3 [2:0] $end
$var reg 32 T instr [31:0] $end
$var reg 32 U old_pc [31:0] $end
$var reg 32 V rd_2_out [31:0] $end
$var reg 4 W state [3:0] $end
$var reg 32 X write_data [31:0] $end
$scope module adr_mux $end
$var wire 1 C sel $end
$var wire 32 Y in1 [31:0] $end
$var wire 32 Z in0 [31:0] $end
$var reg 32 [ out [31:0] $end
$upscope $end
$scope module alu_src_a_mux $end
$var wire 32 \ in1 [31:0] $end
$var wire 32 ] in2 [31:0] $end
$var wire 2 ^ sel [1:0] $end
$var wire 32 _ in0 [31:0] $end
$var reg 32 ` out [31:0] $end
$upscope $end
$scope module alu_src_b_mux $end
$var wire 32 a in0 [31:0] $end
$var wire 32 b in2 [31:0] $end
$var wire 2 c sel [1:0] $end
$var wire 32 d in1 [31:0] $end
$var reg 32 e out [31:0] $end
$upscope $end
$scope module result_src_mux $end
$var wire 32 f in0 [31:0] $end
$var wire 32 g in1 [31:0] $end
$var wire 2 h sel [1:0] $end
$var wire 32 i in2 [31:0] $end
$var reg 32 j out [31:0] $end
$upscope $end
$scope module u1 $end
$var wire 1 % clk $end
$var wire 32 k dmem_address [31:0] $end
$var wire 32 l dmem_data_in [31:0] $end
$var wire 1 m dmem_write_enable $end
$var wire 3 n funct3 [2:0] $end
$var wire 32 o imem_address [31:0] $end
$var wire 1 p reset $end
$var wire 1 q sign_bit3 $end
$var wire 1 r sign_bit2 $end
$var wire 1 s sign_bit1 $end
$var wire 1 t sign_bit0 $end
$var wire 1 - red $end
$var wire 1 4 led $end
$var wire 1 u is_millis $end
$var wire 1 v is_micros $end
$var wire 1 w is_leds $end
$var wire 1 x is_dmem $end
$var wire 8 y imem_data_out3 [7:0] $end
$var wire 8 z imem_data_out2 [7:0] $end
$var wire 8 { imem_data_out1 [7:0] $end
$var wire 8 | imem_data_out0 [7:0] $end
$var wire 32 } imem_data_out [31:0] $end
$var wire 1 : green $end
$var wire 1 ~ dmem_write_word $end
$var wire 1 !" dmem_write_halfword $end
$var wire 1 2 dmem_wren $end
$var wire 16 "" dmem_dout32 [15:0] $end
$var wire 8 #" dmem_dout3 [7:0] $end
$var wire 8 $" dmem_dout2 [7:0] $end
$var wire 16 %" dmem_dout10 [15:0] $end
$var wire 8 &" dmem_dout1 [7:0] $end
$var wire 8 '" dmem_dout0 [7:0] $end
$var wire 32 (" dmem_dout [31:0] $end
$var wire 8 )" dmem_din3 [7:0] $end
$var wire 8 *" dmem_din2 [7:0] $end
$var wire 8 +" dmem_din1 [7:0] $end
$var wire 8 ," dmem_din0 [7:0] $end
$var wire 8 -" dmem_data_out3 [7:0] $end
$var wire 8 ." dmem_data_out2 [7:0] $end
$var wire 8 /" dmem_data_out1 [7:0] $end
$var wire 8 0" dmem_data_out0 [7:0] $end
$var wire 1 1" dmem_addr1 $end
$var wire 1 2" dmem_addr0 $end
$var wire 1 < blue $end
$var parameter 32 3" CLK_FREQ $end
$var parameter 8 4" DMEM_INIT_FILE_PREFIX $end
$var parameter 80 5" IMEM_INIT_FILE_PREFIX $end
$var parameter 32 6" TICKS_PER_MICROSECOND $end
$var parameter 32 7" TICKS_PER_MILLISECOND $end
$var reg 1 8" dmem_address0 $end
$var reg 1 9" dmem_address1 $end
$var reg 8 :" dmem_data_in0 [7:0] $end
$var reg 8 ;" dmem_data_in1 [7:0] $end
$var reg 8 <" dmem_data_in2 [7:0] $end
$var reg 8 =" dmem_data_in3 [7:0] $end
$var reg 32 >" dmem_data_out [31:0] $end
$var reg 32 ?" dmem_data_value [31:0] $end
$var reg 1 @" dmem_halfword $end
$var reg 1 A" dmem_unsigned $end
$var reg 1 B" dmem_word $end
$var reg 1 C" dmem_wren0 $end
$var reg 1 D" dmem_wren1 $end
$var reg 1 E" dmem_wren2 $end
$var reg 1 F" dmem_wren3 $end
$var reg 32 G" leds [31:0] $end
$var reg 32 H" micros [31:0] $end
$var reg 4 I" micros_counter [3:0] $end
$var reg 32 J" millis [31:0] $end
$var reg 14 K" millis_counter [13:0] $end
$var reg 8 L" pwm_counter [7:0] $end
$scope module dmem0 $end
$var wire 10 M" address [9:0] $end
$var wire 1 % clk $end
$var wire 8 N" data_in [7:0] $end
$var wire 1 C" write_enable $end
$var parameter 48 O" INIT_FILE $end
$var reg 8 P" data_out [7:0] $end
$var integer 32 Q" i [31:0] $end
$upscope $end
$scope module dmem1 $end
$var wire 10 R" address [9:0] $end
$var wire 1 % clk $end
$var wire 8 S" data_in [7:0] $end
$var wire 1 D" write_enable $end
$var parameter 48 T" INIT_FILE $end
$var reg 8 U" data_out [7:0] $end
$var integer 32 V" i [31:0] $end
$upscope $end
$scope module dmem2 $end
$var wire 10 W" address [9:0] $end
$var wire 1 % clk $end
$var wire 8 X" data_in [7:0] $end
$var wire 1 E" write_enable $end
$var parameter 48 Y" INIT_FILE $end
$var reg 8 Z" data_out [7:0] $end
$var integer 32 [" i [31:0] $end
$upscope $end
$scope module dmem3 $end
$var wire 10 \" address [9:0] $end
$var wire 1 % clk $end
$var wire 8 ]" data_in [7:0] $end
$var wire 1 F" write_enable $end
$var parameter 48 ^" INIT_FILE $end
$var reg 8 _" data_out [7:0] $end
$var integer 32 `" i [31:0] $end
$upscope $end
$scope module imem0 $end
$var wire 10 a" address [9:0] $end
$var wire 1 % clk $end
$var wire 8 b" data_in [7:0] $end
$var wire 1 c" write_enable $end
$var parameter 120 d" INIT_FILE $end
$var reg 8 e" data_out [7:0] $end
$upscope $end
$scope module imem1 $end
$var wire 10 f" address [9:0] $end
$var wire 1 % clk $end
$var wire 8 g" data_in [7:0] $end
$var wire 1 h" write_enable $end
$var parameter 120 i" INIT_FILE $end
$var reg 8 j" data_out [7:0] $end
$upscope $end
$scope module imem2 $end
$var wire 10 k" address [9:0] $end
$var wire 1 % clk $end
$var wire 8 l" data_in [7:0] $end
$var wire 1 m" write_enable $end
$var parameter 120 n" INIT_FILE $end
$var reg 8 o" data_out [7:0] $end
$upscope $end
$scope module imem3 $end
$var wire 10 p" address [9:0] $end
$var wire 1 % clk $end
$var wire 8 q" data_in [7:0] $end
$var wire 1 r" write_enable $end
$var parameter 120 s" INIT_FILE $end
$var reg 8 t" data_out [7:0] $end
$upscope $end
$upscope $end
$scope module u2 $end
$var wire 1 % clk $end
$var wire 32 u" next_pc [31:0] $end
$var wire 1 & reset $end
$var wire 1 0 pc_write $end
$var reg 32 v" pc [31:0] $end
$upscope $end
$scope module u3 $end
$var wire 32 w" instr [31:0] $end
$var wire 3 x" imm_src [2:0] $end
$var reg 32 y" imm_ext [31:0] $end
$upscope $end
$scope module u4 $end
$var wire 1 % clk $end
$var wire 5 z" rd [4:0] $end
$var wire 32 {" read_data1 [31:0] $end
$var wire 32 |" read_data2 [31:0] $end
$var wire 1 & reset $end
$var wire 5 }" rs1 [4:0] $end
$var wire 5 ~" rs2 [4:0] $end
$var wire 32 !# write_data [31:0] $end
$var wire 1 , reg_write $end
$scope begin $unm_blk_71 $end
$var integer 32 "# i [31:0] $end
$upscope $end
$upscope $end
$scope module u5 $end
$var wire 1 % clk $end
$var wire 3 ## funct3 [2:0] $end
$var wire 7 $# funct7 [6:0] $end
$var wire 7 %# opcode [6:0] $end
$var wire 1 0 pc_write $end
$var wire 1 & reset $end
$var wire 1 ( zero $end
$var parameter 4 &# ALU_WB $end
$var parameter 4 '# AUI $end
$var parameter 4 (# BEQ $end
$var parameter 4 )# DECODE $end
$var parameter 4 *# EXECUTE_I $end
$var parameter 4 +# EXECUTE_R $end
$var parameter 4 ,# FETCH $end
$var parameter 4 -# JAL $end
$var parameter 4 .# JALR $end
$var parameter 4 /# LUI $end
$var parameter 4 0# MEM_ADR $end
$var parameter 4 1# MEM_READ $end
$var parameter 4 2# MEM_WB $end
$var parameter 4 3# MEM_WRITE $end
$var reg 1 C adr_src $end
$var reg 3 4# alu_control [2:0] $end
$var reg 2 5# alu_op [1:0] $end
$var reg 2 6# alu_src_a [1:0] $end
$var reg 2 7# alu_src_b [1:0] $end
$var reg 1 8# branch $end
$var reg 3 9# imm_src [2:0] $end
$var reg 1 5 ir_write $end
$var reg 1 2 mem_write $end
$var reg 4 :# next_state [3:0] $end
$var reg 1 1 pc_update $end
$var reg 1 , reg_write $end
$var reg 2 ;# result_src [1:0] $end
$var reg 4 <# state [3:0] $end
$upscope $end
$scope module u6 $end
$var wire 32 =# alu_a [31:0] $end
$var wire 32 ># alu_b [31:0] $end
$var wire 3 ?# alu_operation [2:0] $end
$var wire 1 ( zero $end
$var wire 1 ) signed_less_than $end
$var wire 1 3 less_than $end
$var reg 32 @# alu_c [31:0] $end
$upscope $end
$upscope $end
$upscope $end
$enddefinitions $end
$comment Show the parameter values. $end
$dumpall
b101 3#
b100 2#
b11 1#
b10 0#
b1011 /#
b1101 .#
b1001 -#
b0 ,#
b110 +#
b1000 *#
b1 )#
b1010 (#
b1100 '#
b111 &#
b11100100111011000110011001100100110100101011111011101000110010101110011011101000011001100101110011101000111100001110100 s"
b11100100111011000110011001100100110100101011111011101000110010101110011011101000011001000101110011101000111100001110100 n"
b11100100111011000110011001100100110100101011111011101000110010101110011011101000011000100101110011101000111100001110100 i"
b11100100111011000110011001100100110100101011111011101000110010101110011011101000011000000101110011101000111100001110100 d"
b0 ^"
b0 Y"
b0 T"
b0 O"
b10111011100000 7"
b1100 6"
b1110010011101100011001100110010011010010101111101110100011001010111001101110100 5"
b0 4"
b101101110001101100000000 3"
b10 L
b1011011100011011000000 K
b1 J
b110 I
b0 H
b11 G
b100 F
b101 E
$end
#0
$dumpvars
bx @#
b0 ?#
b100 >#
bx =#
b0 <#
b10 ;#
b1 :#
b0 9#
08#
b10 7#
b0 6#
b0 5#
b0 4#
bx %#
bx $#
bx ##
bx "#
bx !#
bx ~"
bx }"
bx |"
bx {"
bx z"
bx y"
b0 x"
bx w"
bx v"
bx u"
bx t"
0r"
b0 q"
bx p"
bx o"
0m"
b0 l"
bx k"
bx j"
0h"
b0 g"
bx f"
bx e"
0c"
b0 b"
bx a"
b10000000000 `"
bx _"
b0 ]"
b0 \"
b10000000000 ["
bx Z"
b0 X"
b0 W"
b10000000000 V"
bx U"
b0 S"
b0 R"
b10000000000 Q"
bx P"
bx N"
b0 M"
b0 L"
b0 K"
b0 J"
b0 I"
b0 H"
b0 G"
0F"
0E"
0D"
0C"
1B"
0A"
0@"
b0 ?"
bx >"
b0 ="
b0 <"
b0 ;"
bx :"
09"
08"
02"
01"
bx 0"
bx /"
bx ."
bx -"
bx ,"
bx +"
bx *"
bx )"
bx ("
bx '"
bx &"
bx %"
bx $"
bx #"
bx ""
x!"
x~
bx }
bx |
bx {
bx z
bx y
1x
0w
0v
0u
xt
xs
xr
xq
1p
bx o
bx n
0m
bx l
b0 k
bx j
bx i
b10 h
bx g
bx f
b100 e
bx d
b10 c
b100 b
bx a
bx `
bx _
b0 ^
bx ]
bx \
bx [
bx Z
bx Y
bx X
b0 W
bx V
bx U
bx T
b10 S
0R
b0 Q
b0 P
b0 O
bx N
bx M
bx D
0C
bx B
b100 A
bx @
b0 ?
b0 >
b10 =
0<
bx ;
0:
bx 9
bx 8
bx 7
b0 6
15
04
x3
02
11
10
bx /
bx .
0-
0,
bx +
b10 *
x)
x(
bx '
1&
0%
1$
1#
1"
1!
$end
#4000
b0 %"
b0 ""
b0 '"
b0 &"
b0 $"
b0 #"
0t
0s
0r
0q
b0 ("
bx A
bx e
bx >#
00
b0 a"
b0 f"
b0 k"
b0 p"
x(
bx @
bx i
bx @#
b0 '
b0 g
b0 ;
b0 >"
b0 :#
b1 >
b1 ^
b1 6#
b0 *
b0 h
b0 ;#
b1 =
b1 c
b1 7#
01
05
b1000000000000 D
b1000000000000 [
b1000000000000 o
x)
x3
bx B
bx `
bx =#
b0 0"
b0 P"
b0 /"
b0 U"
b0 ."
b0 Z"
b0 -"
b0 _"
xA"
x@"
xB"
b1 L"
b1 K"
b1 I"
b1 <#
b1000000000000 9
b1000000000000 Z
b1000000000000 _
b1000000000000 v"
b100000 "#
1%
#8000
0%
#12000
b1000000000100 +
b1000000000100 Y
b1000000000100 j
b1000000000100 u"
0(
b1000000000100 @
b1000000000100 i
b1000000000100 @#
10
0)
03
b100 A
b100 e
b100 >#
b1000000000000 B
b1000000000000 `
b1000000000000 =#
b11111110110111001100000010110111 8
b11111110110111001100000010110111 }
b1 :#
b10 *
b10 h
b10 ;#
11
15
b10 =
b10 c
b10 7#
b0 >
b0 ^
b0 6#
b0 <#
b10 I"
b10 K"
b10 L"
b11111110 y
b11111110 t"
b11011100 z
b11011100 o"
b11000000 {
b11000000 j"
b10110111 |
b10110111 e"
b100000 "#
1%
#16000
0%
#20000
0(
b11111111111111001101111111101100 @
b11111111111111001101111111101100 i
b11111111111111001101111111101100 @#
00
0~
0!"
b0 /
b0 {"
b0 .
b0 |"
b11 6
b11 x"
b11 9#
13
b11111111111111001100111111101100 A
b11111111111111001100111111101100 e
b11111111111111001100111111101100 >#
b1011 :#
b1 >
b1 ^
b1 6#
b0 *
b0 h
b0 ;#
b1 =
b1 c
b1 7#
01
05
b100 n
b11001 }"
b1101 ~"
b1 z"
b110111 %#
b100 ##
b1111111 $#
b11111111111111001100111111101100 7
b11111111111111001100111111101100 d
b11111111111111001100111111101100 y"
b11 L"
b11 K"
b11 I"
b1 <#
b1000000000000 U
b1000000000000 \
b11111110110111001100000010110111 T
b11111110110111001100000010110111 w"
b1000000000100 N
b1000000000100 f
b100000 "#
1%
#24000
0%
#28000
b0 :"
b0 N"
b11111111111111001101111111101100 +
b11111111111111001101111111101100 Y
b11111111111111001101111111101100 j
b11111111111111001101111111101100 u"
b0 ,"
b0 +"
b0 *"
b0 )"
b0 :#
1,
b1 =
b1 c
b1 7#
b0 >
b0 ^
b0 6#
b11111111111111001101111111101100 N
b11111111111111001101111111101100 f
b0 V
b0 a
b0 X
b0 l
b0 !#
b0 M
b0 ]
b1011 <#
b100 I"
b100 K"
b100 L"
1A"
0@"
0B"
b100000 "#
1%
#32000
0%
#36000
b1000000000100 +
b1000000000100 Y
b1000000000100 j
b1000000000100 u"
0(
b1000000000100 @
b1000000000100 i
b1000000000100 @#
10
03
b100 A
b100 e
b100 >#
b1 :#
b10 *
b10 h
b10 ;#
11
15
0,
b10 =
b10 c
b10 7#
b101 L"
b101 K"
b101 I"
b0 <#
b100000 "#
1%
#40000
0%
0&
#44000
13
b11111111111111001100111111101100 A
b11111111111111001100111111101100 e
b11111111111111001100111111101100 >#
00
b1 a"
b1 f"
b1 k"
b1 p"
0(
b11111111111111001101111111101100 @
b11111111111111001101111111101100 i
b11111111111111001101111111101100 @#
b1011 :#
b1 >
b1 ^
b1 6#
b0 *
b0 h
b0 ;#
b1 =
b1 c
b1 7#
01
05
b1000000000100 D
b1000000000100 [
b1000000000100 o
b1000000000000 B
b1000000000000 `
b1000000000000 =#
b1000000000100 N
b1000000000100 f
b1 <#
b110 I"
b110 K"
b110 L"
b1000000000100 9
b1000000000100 Z
b1000000000100 _
b1000000000100 v"
1%
#48000
0%
#52000
0(
b11111111111111001101111111110000 @
b11111111111111001101111111110000 i
b11111111111111001101111111110000 @#
b10101001100000001000000010010011 8
b10101001100000001000000010010011 }
b1000000000100 B
b1000000000100 `
b1000000000100 =#
b0 :#
1,
b1 =
b1 c
b1 7#
b0 >
b0 ^
b0 6#
b11111111111111001101111111101100 +
b11111111111111001101111111101100 Y
b11111111111111001101111111101100 j
b11111111111111001101111111101100 u"
b10010011 |
b10010011 e"
b10000000 {
b10000000 j"
b10000000 z
b10000000 o"
b10101001 y
b10101001 t"
b111 L"
b111 K"
b111 I"
b1011 <#
b11111111111111001101111111101100 N
b11111111111111001101111111101100 f
1%
#56000
0%
#60000
0(
b1000000001000 @
b1000000001000 i
b1000000001000 @#
10
03
b100 A
b100 e
b100 >#
b1000000001000 +
b1000000001000 Y
b1000000001000 j
b1000000001000 u"
b1 :#
b10 *
b10 h
b10 ;#
11
15
0,
b10 =
b10 c
b10 7#
b11111111111111001101111111110000 N
b11111111111111001101111111110000 f
b0 <#
b1000 I"
b1000 K"
b1000 L"
1%
#64000
0%
#68000
00
b0 6
b0 x"
b0 9#
13
b11111111111111111111101010011000 A
b11111111111111111111101010011000 e
b11111111111111111111101010011000 >#
b10 a"
b10 f"
b10 k"
b10 p"
0(
b101010011100 @
b101010011100 i
b101010011100 @#
b1000 :#
b1 >
b1 ^
b1 6#
b0 *
b0 h
b0 ;#
b1 =
b1 c
b1 7#
01
05
b0 n
b1 }"
b11000 ~"
b10011 %#
b0 ##
b1010100 $#
b11111111111111111111101010011000 7
b11111111111111111111101010011000 d
b11111111111111111111101010011000 y"
b1000000001000 D
b1000000001000 [
b1000000001000 o
b1000000000100 B
b1000000000100 `
b1000000000100 =#
b1001 L"
b1001 K"
b1001 I"
b1 <#
b1000000000100 U
b1000000000100 \
b10101001100000001000000010010011 T
b10101001100000001000000010010011 w"
b1000000001000 N
b1000000001000 f
b1000000001000 9
b1000000001000 Z
b1000000001000 _
b1000000001000 v"
1%
#72000
0%
#76000
0(
b11111111111111111111101010011000 @
b11111111111111111111101010011000 i
b11111111111111111111101010011000 @#
b0 B
b0 `
b0 =#
b10000001101000100010011 8
b10000001101000100010011 }
b101010011100 +
b101010011100 Y
b101010011100 j
b101010011100 u"
b111 :#
b10 5#
b1 =
b1 c
b1 7#
b10 >
b10 ^
b10 6#
b101010011100 N
b101010011100 f
b1000 <#
b1010 I"
b1010 K"
b1010 L"
0A"
b0 y
b0 t"
b1000000 z
b1000000 o"
b11010001 {
b11010001 j"
b10011 |
b10011 e"
1%
#80000
0%
#84000
0(
b1000000001000 @
b1000000001000 i
b1000000001000 @#
03
b0 A
b0 e
b0 >#
b1000000001000 B
b1000000001000 `
b1000000001000 =#
b0 :#
1,
b0 5#
b0 =
b0 c
b0 7#
b0 >
b0 ^
b0 6#
b11111111111111111111101010011000 +
b11111111111111111111101010011000 Y
b11111111111111111111101010011000 j
b11111111111111111111101010011000 u"
b1011 L"
b1011 K"
b1011 I"
b111 <#
b11111111111111111111101010011000 N
b11111111111111111111101010011000 f
1%
#88000
0%
#92000
0(
b1000000001100 @
b1000000001100 i
b1000000001100 @#
b100 A
b100 e
b100 >#
10
b1000000001100 +
b1000000001100 Y
b1000000001100 j
b1000000001100 u"
b1 :#
b10 *
b10 h
b10 ;#
b10 =
b10 c
b10 7#
11
15
0,
b1000000001000 N
b1000000001000 f
b0 <#
b1 H"
b0 I"
b1100 K"
b1100 L"
1%
#96000
0%
#100000
00
1!"
b11 a"
b11 f"
b11 k"
b11 p"
0(
b1000000001100 @
b1000000001100 i
b1000000001100 @#
b1000 :#
b1 >
b1 ^
b1 6#
b0 *
b0 h
b0 ;#
b1 =
b1 c
b1 7#
01
05
b101 n
b100 ~"
b10 z"
b101 ##
b0 $#
b100 7
b100 d
b100 y"
b1000000001100 D
b1000000001100 [
b1000000001100 o
b1000000001000 B
b1000000001000 `
b1000000001000 =#
b1101 L"
b1101 K"
b1 I"
b1 <#
b1000000001000 U
b1000000001000 \
b10000001101000100010011 T
b10000001101000100010011 w"
b1000000001100 N
b1000000001100 f
b1000000001100 9
b1000000001100 Z
b1000000001100 _
b1000000001100 v"
1%
#104000
0%
#108000
0(
b100 @
b100 i
b100 @#
1)
13
b0 B
b0 `
b0 =#
b1000000010000001101000110010011 8
b1000000010000001101000110010011 }
b111 :#
b10 5#
b1 =
b1 c
b1 7#
b10 >
b10 ^
b10 6#
b1000 <#
b10 I"
b1110 K"
b1110 L"
1A"
1@"
b1000000 y
b1000000 t"
b10010011 |
b10010011 e"
1%
#112000
0%
#116000
0(
b1000000001100 @
b1000000001100 i
b1000000001100 @#
b0 A
b0 e
b0 >#
0)
03
b1000000001100 B
b1000000001100 `
b1000000001100 =#
b0 :#
1,
b0 5#
b0 =
b0 c
b0 7#
b0 >
b0 ^
b0 6#
b100 +
b100 Y
b100 j
b100 u"
b1111 L"
b1111 K"
b11 I"
b111 <#
b100 N
b100 f
1%
#120000
0%
#124000
0(
b1000000010000 @
b1000000010000 i
b1000000010000 @#
b100 A
b100 e
b100 >#
10
b1000000010000 +
b1000000010000 Y
b1000000010000 j
b1000000010000 u"
b1 :#
b10 *
b10 h
b10 ;#
b10 =
b10 c
b10 7#
11
15
0,
b1000000001100 N
b1000000001100 f
b0 <#
b100 I"
b10000 K"
b10000 L"
1%
#128000
0%
#132000
00
b10000000100 A
b10000000100 e
b10000000100 >#
b100 a"
b100 f"
b100 k"
b100 p"
0(
b1010000010000 @
b1010000010000 i
b1010000010000 @#
b1000 :#
b1 >
b1 ^
b1 6#
b0 *
b0 h
b0 ;#
b1 =
b1 c
b1 7#
01
05
b11 z"
b100000 $#
b10000000100 7
b10000000100 d
b10000000100 y"
b1000000010000 D
b1000000010000 [
b1000000010000 o
b1000000001100 B
b1000000001100 `
b1000000001100 =#
b10001 L"
b10001 K"
b101 I"
b1 <#
b1000000001100 U
b1000000001100 \
b1000000010000001101000110010011 T
b1000000010000001101000110010011 w"
b1000000010000 N
b1000000010000 f
b1000000010000 9
b1000000010000 Z
b1000000010000 _
b1000000010000 v"
1%
#136000
0%
#140000
0(
b10000000100 @
b10000000100 i
b10000000100 @#
1)
13
b0 B
b0 `
b0 =#
b11111111111100011100001000010011 8
b11111111111100011100001000010011 }
b1010000010000 +
b1010000010000 Y
b1010000010000 j
b1010000010000 u"
b111 :#
b10 5#
b1 =
b1 c
b1 7#
b10 >
b10 ^
b10 6#
b1010000010000 N
b1010000010000 f
b1000 <#
b110 I"
b10010 K"
b10010 L"
b11111111 y
b11111111 t"
b11110001 z
b11110001 o"
b11000010 {
b11000010 j"
b10011 |
b10011 e"
1%
#144000
0%
#148000
0(
b1000000010000 @
b1000000010000 i
b1000000010000 @#
b0 A
b0 e
b0 >#
0)
03
b1000000010000 B
b1000000010000 `
b1000000010000 =#
b0 :#
1,
b0 5#
b0 =
b0 c
b0 7#
b0 >
b0 ^
b0 6#
b10000000100 +
b10000000100 Y
b10000000100 j
b10000000100 u"
b10011 L"
b10011 K"
b111 I"
b111 <#
b10000000100 N
b10000000100 f
1%
#152000
0%
#156000
0(
b1000000010100 @
b1000000010100 i
b1000000010100 @#
b100 A
b100 e
b100 >#
10
b1000000010100 +
b1000000010100 Y
b1000000010100 j
b1000000010100 u"
b1 :#
b10 *
b10 h
b10 ;#
b10 =
b10 c
b10 7#
11
15
0,
b1000000010000 N
b1000000010000 f
b0 <#
b1000 I"
b10100 K"
b10100 L"
1%
#160000
0%
#164000
00
0!"
13
b11111111111111111111111111111111 A
b11111111111111111111111111111111 e
b11111111111111111111111111111111 >#
b101 a"
b101 f"
b101 k"
b101 p"
0(
b1000000001111 @
b1000000001111 i
b1000000001111 @#
b1000 :#
b1 >
b1 ^
b1 6#
b0 *
b0 h
b0 ;#
b1 =
b1 c
b1 7#
01
05
b100 n
b11 }"
b11111 ~"
b100 z"
b100 ##
b1111111 $#
b11111111111111111111111111111111 7
b11111111111111111111111111111111 d
b11111111111111111111111111111111 y"
b1000000010100 D
b1000000010100 [
b1000000010100 o
b1000000010000 B
b1000000010000 `
b1000000010000 =#
b10101 L"
b10101 K"
b1001 I"
b1 <#
b1000000010000 U
b1000000010000 \
b11111111111100011100001000010011 T
b11111111111100011100001000010011 w"
b1000000010100 N
b1000000010100 f
b1000000010100 9
b1000000010100 Z
b1000000010100 _
b1000000010100 v"
1%
